[channels_list]
free_channels=2,3,5,6,7,9,11,12,15,16,19,20,21,22,23,24,25
scrambled_channels_with_rights=34,46,47,48,49
scrambled_channels_without_rights=10,26,30,33,35,36,37,38,40
barker_channels=4,27,41,42,45
catchup_channels=28,27,31,50
tvod_channels=1,2,6,7,9,153
default_channel=1
mosaic_channels=1,2,3,4,5,6,7,8,20,21,22,27,29,33,34,35,37,46,47,48,49,50,51,65,84,100,105,116,119,125,133,141,142,147,154,157,190,451,460,462,470,482,490,492,700,701,803,999
interactive_services_channel=50,118,31,78
e2e_test_channel=870
vf_vo_ad_channels=1,2,6,8
vf_ad_channels=3,5
vf_channels=15,16
adult_channel=203
record_channel=2,3,5,6,7,8,9,11,12,13,14,15,16,17,20,21,22,23,24,25,203
vod_recommendation_channel=46,47,48,49
without_recommendation_channel=3,5,6,7,8,9,11,12,13,15,16,17,19,20,21,22,23,24,25,34
sd_channels=2,3,5,6,7,8,9,10,11,12,14,16
hd_channels=2,3,5,6,7,8,9,14,16
tnt_channels=1,2,3,5,6,7,8,9,10,11,12,13,15,16,17,18,20,21,25
sd_channels_only=10,11,12,17,18,19,34
